/home/danil/PycharmProjects/venv_math/bin/python3.8 /home/danil/PycharmProjects/lab6_odu_solve/odu_solve.py
h0 = 0.1
y1 = 0.9389204284782067
y2 с шагом h:  0.8872551890506424
y2 с шагом 2h: 0.8872543783978695
|y2 - y2_2| = 8.106527729090374e-07

|y2 - y2_2| < 0.0001
Увеличим шаг в 2 раза
h = 0.2
y1 = 0.8872543783978695
y2 с шагом h:  0.8045172050652228
y2 с шагом 2h: 0.8045062465424444
|y2 - y2_2| = 1.0958522778437008e-05

Увеличим шаг в 2 раза
h = 0.4
y1 = 0.8045062465424444
y2 с шагом h:  0.690913446079033
y2 с шагом 2h: 0.6909437018189785
|y2 - y2_2| = 3.0255739945417304e-05

Увеличим шаг в 2 раза
h = 0.8
y1 = 0.6909437018189785
y2 с шагом h:  0.5643669121316706
y2 с шагом 2h: 0.5699259254019025
|y2 - y2_2| = 0.005559013270231894

n = 5 , увеличим на 1, сделав четным.
h0 = 0.6666666666666666
y1 = 0.7231034108522227
y2 с шагом h:  0.5972176162184926
y2 с шагом 2h: 0.5992425620690174
|y2 - y2_2| = 0.0020249458505248175

Уменьшим шаг в 2 раза
h = 0.3333333333333333
y1 = 0.8295422140356887
y2 с шагом h:  0.7231230975349571
y2 с шагом 2h: 0.7231034108522227
|y2 - y2_2| = 1.9686682734332273e-05

Шаг найден: 0.3333333333333333
Количество отрезков: 12

f_runge_kutta :

max_delta_y =3.821220014232907e-05

   x	   y_i_h	y_i_2h	 delta y
 1.00000  1.00000  1.00000  0.00000
 1.33333  0.82954
 1.66667  0.72312  0.72310  0.00002
 2.00000  0.65023
 2.33333  0.59725  0.59722  0.00003
 2.66667  0.55715
 3.00000  0.52592  0.52589  0.00003
 3.33333  0.50110
 3.66667  0.48107  0.48104  0.00003
 4.00000  0.46476
 4.33333  0.45140  0.45136  0.00004
 4.66667  0.44044
 5.00000  0.43147  0.43143  0.00004

f_euler :

max_delta_y =0.107669038081317

   x	   y_i_h	y_i_2h	 delta y
 1.00000  1.00000  1.00000  0.00000
 1.33333  0.77778
 1.66667  0.65055  0.55556  0.09499
 2.00000  0.56746
 2.33333  0.50866  0.40192  0.10674
 2.66667  0.46475
 3.00000  0.43065  0.32298  0.10767
 3.33333  0.40341
 3.66667  0.38115  0.27439  0.10676
 4.00000  0.36264
 4.33333  0.34703  0.24123  0.10580
 4.66667  0.33372
 5.00000  0.32226  0.21705  0.10521

Точное решение:

Максимум отклонения приближенного значения от точного: 1.0413245123686021e-05

   x	   y	y_runge_kutta delta y
1.000000 1.000000 1.000000 0.000000
1.333333 0.829549 0.829542 0.000007
1.666667 0.723131 0.723123 0.000008
2.000000 0.650237 0.650228 0.000009
2.333333 0.597256 0.597247 0.000009
2.666667 0.557159 0.557150 0.000009
3.000000 0.525932 0.525923 0.000009
3.333333 0.501106 0.501097 0.000009
3.666667 0.481081 0.481071 0.000009
4.000000 0.464769 0.464759 0.000010
4.333333 0.451408 0.451398 0.000010
4.666667 0.440447 0.440437 0.000010
5.000000 0.431480 0.431470 0.000010

Process finished with exit code 0
